{
  "data": [
    {
      "category": "3.10",
      "date": "2024-09",
      "downloads": 216
    },
    {
      "category": "3.10",
      "date": "2024-10",
      "downloads": 242
    },
    {
      "category": "3.10",
      "date": "2024-11",
      "downloads": 240
    },
    {
      "category": "3.10",
      "date": "2024-12",
      "downloads": 254
    },
    {
      "category": "3.10",
      "date": "2025-01",
      "downloads": 248
    },
    {
      "category": "3.10",
      "date": "2025-02",
      "downloads": 219
    },
    {
      "category": "3.10",
      "date": "2025-03",
      "downloads": 56
    },
    {
      "category": "3.11",
      "date": "2024-09",
      "downloads": 216
    },
    {
      "category": "3.11",
      "date": "2024-10",
      "downloads": 2226
    },
    {
      "category": "3.11",
      "date": "2024-11",
      "downloads": 298
    },
    {
      "category": "3.11",
      "date": "2024-12",
      "downloads": 270
    },
    {
      "category": "3.11",
      "date": "2025-01",
      "downloads": 248
    },
    {
      "category": "3.11",
      "date": "2025-02",
      "downloads": 216
    },
    {
      "category": "3.11",
      "date": "2025-03",
      "downloads": 56
    },
    {
      "category": "3.12",
      "date": "2024-09",
      "downloads": 216
    },
    {
      "category": "3.12",
      "date": "2024-10",
      "downloads": 240
    },
    {
      "category": "3.12",
      "date": "2024-11",
      "downloads": 240
    },
    {
      "category": "3.12",
      "date": "2024-12",
      "downloads": 250
    },
    {
      "category": "3.12",
      "date": "2025-01",
      "downloads": 250
    },
    {
      "category": "3.12",
      "date": "2025-02",
      "downloads": 216
    },
    {
      "category": "3.12",
      "date": "2025-03",
      "downloads": 56
    },
    {
      "category": "3.13",
      "date": "2025-01",
      "downloads": 2
    },
    {
      "category": "3.8",
      "date": "2024-09",
      "downloads": 216
    },
    {
      "category": "3.8",
      "date": "2024-10",
      "downloads": 240
    },
    {
      "category": "3.8",
      "date": "2024-11",
      "downloads": 246
    },
    {
      "category": "3.8",
      "date": "2024-12",
      "downloads": 252
    },
    {
      "category": "3.8",
      "date": "2025-01",
      "downloads": 248
    },
    {
      "category": "3.8",
      "date": "2025-02",
      "downloads": 216
    },
    {
      "category": "3.8",
      "date": "2025-03",
      "downloads": 56
    },
    {
      "category": "3.9",
      "date": "2024-10",
      "downloads": 8
    },
    {
      "category": "3.9",
      "date": "2025-02",
      "downloads": 3
    },
    {
      "category": "3.9",
      "date": "2025-03",
      "downloads": 2
    },
    {
      "category": "null",
      "date": "2024-09",
      "downloads": 34
    },
    {
      "category": "null",
      "date": "2024-10",
      "downloads": 163
    },
    {
      "category": "null",
      "date": "2024-11",
      "downloads": 84
    },
    {
      "category": "null",
      "date": "2024-12",
      "downloads": 83
    },
    {
      "category": "null",
      "date": "2025-01",
      "downloads": 141
    },
    {
      "category": "null",
      "date": "2025-02",
      "downloads": 126
    },
    {
      "category": "null",
      "date": "2025-03",
      "downloads": 15
    }
  ],
  "package": "prosessilouhinta",
  "type": "python_minor_downloads"
}
